<?xml version="1.0" encoding="UTF-8" standalone="no"?>
<svg
   xmlns:dc="http://purl.org/dc/elements/1.1/"
   xmlns:cc="http://creativecommons.org/ns#"
   xmlns:rdf="http://www.w3.org/1999/02/22-rdf-syntax-ns#"
   xmlns:svg="http://www.w3.org/2000/svg"
   xmlns="http://www.w3.org/2000/svg"
   xmlns:sodipodi="http://sodipodi.sourceforge.net/DTD/sodipodi-0.dtd"
   xmlns:inkscape="http://www.inkscape.org/namespaces/inkscape"
   id="Слой_1"
   data-name="Слой 1"
   viewBox="0 0 24 24"
   version="1.1"
   sodipodi:docname="erc.svg"
   inkscape:version="0.92.2 5c3e80d, 2017-08-06"
   inkscape:export-filename="/Users/jeff/kicad_dev/kicad/bitmaps_png/png_26/erc.png"
   inkscape:export-xdpi="96"
   inkscape:export-ydpi="96">
  <sodipodi:namedview
     pagecolor="#ffffff"
     bordercolor="#666666"
     borderopacity="1"
     objecttolerance="10"
     gridtolerance="10"
     guidetolerance="10"
     inkscape:pageopacity="0"
     inkscape:pageshadow="2"
     inkscape:window-width="1440"
     inkscape:window-height="856"
     id="namedview30"
     showgrid="true"
     inkscape:zoom="27.961538"
     inkscape:cx="2.7938962"
     inkscape:cy="12.304386"
     inkscape:window-x="0"
     inkscape:window-y="37"
     inkscape:window-maximized="0"
     inkscape:document-rotation="0"
     inkscape:current-layer="Слой_1">
    <inkscape:grid
       type="xygrid"
       id="grid_kicad"
       spacingx="0.5"
       spacingy="0.5"
       color="#9999ff"
       opacity="0.13"
       empspacing="2" />
  </sodipodi:namedview>
  <metadata
     id="metadata43">
    <rdf:RDF>
      <cc:Work
         rdf:about="">
        <cc:license
           rdf:resource="http://creativecommons.org/licenses/by-sa/4.0/" />
        <dc:format>image/svg+xml</dc:format>
        <dc:type
           rdf:resource="http://purl.org/dc/dcmitype/StillImage" />
        <dc:title>add_arc</dc:title>
      </cc:Work>
      <cc:License
         rdf:about="http://creativecommons.org/licenses/by-sa/4.0/">
        <cc:permits
           rdf:resource="http://creativecommons.org/ns#Reproduction" />
        <cc:permits
           rdf:resource="http://creativecommons.org/ns#Distribution" />
        <cc:requires
           rdf:resource="http://creativecommons.org/ns#Notice" />
        <cc:requires
           rdf:resource="http://creativecommons.org/ns#Attribution" />
        <cc:permits
           rdf:resource="http://creativecommons.org/ns#DerivativeWorks" />
        <cc:requires
           rdf:resource="http://creativecommons.org/ns#ShareAlike" />
      </cc:License>
    </rdf:RDF>
  </metadata>
  <defs
     id="defs116871">
    <style
       id="style116869">.cls-1{fill:#b9b9b9;}.cls-2{fill:#fff;}.cls-2,.cls-3{stroke:#545454;}.cls-2,.cls-3,.cls-4,.cls-6{stroke-linecap:round;stroke-linejoin:round;}.cls-3,.cls-4,.cls-6{fill:none;}.cls-4{stroke:#1a81c4;}.cls-5{fill:#bf2641;}.cls-6{stroke:#f5f5f5;stroke-width:2px;}</style>
  </defs>
  <title
     id="title116873">erc</title>
  <rect
     class="cls-2"
     x="2.9919"
     y="2.5251"
     width="3.6903999"
     height="3.6903999"
     id="rect116877" />
  <rect
     class="cls-2"
     x="2.9919"
     y="8.7200003"
     width="3.6903999"
     height="3.6905"
     id="rect116879" />
  <rect
     class="cls-2"
     x="2.9919"
     y="14.9149"
     width="3.6903999"
     height="3.6905999"
     id="rect116881" />
  <line
     class="cls-3"
     x1="8.7174997"
     y1="4.1826"
     x2="17.030199"
     y2="4.1826"
     id="line116883" />
  <line
     class="cls-3"
     x1="8.7174997"
     y1="10.4245"
     x2="17.030199"
     y2="10.4245"
     id="line116885" />
  <line
     class="cls-3"
     x1="8.7174997"
     y1="16.854"
     x2="17.030199"
     y2="16.854"
     id="line116887" />
  <path
     class="cls-5"
     d="M 24.0065,17 A 7.0065,7.0065 0 1 1 17,10 a 7.0032,7.0032 0 0 1 7.0065,7 z"
     id="path116895" />
  <polyline
     class="cls-6"
     points="21.746 16.275 17.173 20.846 14.418 18.093"
     id="polyline116897"
     transform="translate(-1,-1)" />
</svg>
