<?xml version="1.0" encoding="UTF-8" standalone="no"?>
<svg
   xmlns:dc="http://purl.org/dc/elements/1.1/"
   xmlns:cc="http://creativecommons.org/ns#"
   xmlns:rdf="http://www.w3.org/1999/02/22-rdf-syntax-ns#"
   xmlns:svg="http://www.w3.org/2000/svg"
   xmlns="http://www.w3.org/2000/svg"
   xmlns:sodipodi="http://sodipodi.sourceforge.net/DTD/sodipodi-0.dtd"
   xmlns:inkscape="http://www.inkscape.org/namespaces/inkscape"
   id="Слой_1"
   data-name="Слой 1"
   viewBox="0 0 24 24"
   version="1.1"
   sodipodi:docname="new_footprint.svg"
   inkscape:version="1.0.1 (3bc2e813f5, 2020-09-07)">
  <sodipodi:namedview
     pagecolor="#ffffff"
     bordercolor="#666666"
     borderopacity="1"
     objecttolerance="10"
     gridtolerance="10"
     guidetolerance="10"
     inkscape:pageopacity="0"
     inkscape:pageshadow="2"
     inkscape:window-width="2791"
     inkscape:window-height="1648"
     id="namedview30"
     showgrid="true"
     inkscape:zoom="32"
     inkscape:cx="10.440535"
     inkscape:cy="12.560535"
     inkscape:window-x="0"
     inkscape:window-y="37"
     inkscape:window-maximized="0"
     inkscape:document-rotation="0"
     inkscape:current-layer="Слой_1">
    <inkscape:grid
       type="xygrid"
       id="grid_kicad"
       spacingx="0.5"
       spacingy="0.5"
       color="#9999ff"
       opacity="0.13"
       empspacing="2" />
  </sodipodi:namedview>
  <metadata
     id="metadata43">
    <rdf:RDF>
      <cc:Work
         rdf:about="">
        <cc:license
           rdf:resource="http://creativecommons.org/licenses/by-sa/4.0/" />
        <dc:format>image/svg+xml</dc:format>
        <dc:type
           rdf:resource="http://purl.org/dc/dcmitype/StillImage" />
        <dc:title>add_arc</dc:title>
      </cc:Work>
      <cc:License
         rdf:about="http://creativecommons.org/licenses/by-sa/4.0/">
        <cc:permits
           rdf:resource="http://creativecommons.org/ns#Reproduction" />
        <cc:permits
           rdf:resource="http://creativecommons.org/ns#Distribution" />
        <cc:requires
           rdf:resource="http://creativecommons.org/ns#Notice" />
        <cc:requires
           rdf:resource="http://creativecommons.org/ns#Attribution" />
        <cc:permits
           rdf:resource="http://creativecommons.org/ns#DerivativeWorks" />
        <cc:requires
           rdf:resource="http://creativecommons.org/ns#ShareAlike" />
      </cc:License>
    </rdf:RDF>
  </metadata>
  <defs
     id="defs25895">
    <style
       id="style25893">.cls-1,.cls-4{fill:none;stroke-linecap:round;stroke-linejoin:round;}.cls-1{stroke:#545454;}.cls-2{fill:#1a81c4;}.cls-3{fill:#bf2641;}.cls-4{stroke:#f5f5f5;stroke-width:2px;}</style>
  </defs>
  <title
     id="title25897">new_footprint</title>
  <polygon
     class="cls-1"
     points="1.247,13.899 1.247,18.922 21.516,18.922 21.531,4.063 1.247,4.063 1.247,8.578 2.995,10.153 2.995,12.325 "
     id="polygon9"
     transform="matrix(1.1338986,0,0,1.1442747,-0.87718373,-1.2001747)"
     style="fill:none;stroke:#545454;stroke-width:0.877906;stroke-linecap:round;stroke-linejoin:round" />
  <rect
     class="cls-2"
     x="3"
     y="0"
     width="5.0280428"
     height="6.9999995"
     id="rect19"
     style="fill:#1a81c4;stroke-width:1" />
  <rect
     class="cls-2"
     x="10"
     y="0"
     width="5.0280428"
     height="6.9999995"
     id="rect875"
     style="fill:#1a81c4;stroke-width:1" />
  <rect
     class="cls-2"
     x="17"
     y="0"
     width="5.0280428"
     height="6.9999995"
     id="rect877"
     style="fill:#1a81c4;stroke-width:1" />
  <rect
     class="cls-2"
     x="3"
     y="17"
     width="5.0280428"
     height="6.9999995"
     id="rect879"
     style="fill:#1a81c4;stroke-width:1" />
  <rect
     class="cls-2"
     x="10"
     y="17"
     width="5.0280428"
     height="6.9999995"
     id="rect881"
     style="fill:#1a81c4;stroke-width:1" />
  <rect
     class="cls-2"
     x="17"
     y="17"
     width="5.0280428"
     height="6.9999995"
     id="rect883"
     style="fill:#1a81c4;stroke-width:1" />
  <g
     id="g982">
    <circle
       class="cls-3"
       cx="17.5"
       cy="17.5"
       id="circle942"
       style="fill:#ffffff;fill-opacity:1;stroke-width:1"
       r="7.5" />
    <circle
       class="cls-3"
       cx="17.5"
       cy="17.5"
       id="ellipse158474"
       style="fill:#bf2641;fill-opacity:1;stroke-width:1"
       r="6.5" />
    <rect
       style="fill:#ffffff;fill-opacity:1;stroke:none;stroke-width:1.5;stroke-linecap:round;stroke-linejoin:round;stroke-miterlimit:4;stroke-dasharray:none;stroke-opacity:1"
       id="rect920"
       width="1"
       height="2"
       x="-0.5"
       y="-22.248737"
       transform="rotate(135)" />
    <rect
       style="fill:#ffffff;fill-opacity:1;stroke:none;stroke-width:1.5;stroke-linecap:round;stroke-linejoin:round;stroke-miterlimit:4;stroke-dasharray:none;stroke-opacity:1"
       id="rect924"
       width="2"
       height="1"
       x="-4.5"
       y="-25.248737"
       transform="rotate(135)" />
    <rect
       style="fill:#ffffff;fill-opacity:1;stroke:none;stroke-width:1.5;stroke-linecap:round;stroke-linejoin:round;stroke-miterlimit:4;stroke-dasharray:none;stroke-opacity:1"
       id="rect930"
       width="2"
       height="1"
       x="2.5"
       y="-25.248737"
       transform="rotate(135)" />
    <rect
       style="fill:#ffffff;fill-opacity:1;stroke:none;stroke-width:1.5;stroke-linecap:round;stroke-linejoin:round;stroke-miterlimit:4;stroke-dasharray:none;stroke-opacity:1"
       id="rect936"
       width="1"
       height="2"
       x="-0.5"
       y="-29.248737"
       transform="rotate(135)" />
    <path
       style="fill:none;stroke:#ffffff;stroke-width:1px;stroke-linecap:butt;stroke-linejoin:miter;stroke-opacity:1"
       d="M 17.5,21.742641 V 13.257359"
       id="path938" />
    <path
       style="fill:none;stroke:#ffffff;stroke-width:1px;stroke-linecap:butt;stroke-linejoin:miter;stroke-opacity:1"
       d="m 13.257359,17.5 h 8.485282"
       id="path940" />
  </g>
</svg>
